date,adj,close,raw,div,split
2019-03-12,35.759987499918694,38,38,NA,NA
2019-03-13,37.40682902952022,39.75,39.75,NA,NA
2019-03-14,38.25377798399132,40.650002,40.650002,NA,NA
2019-03-15,39.24188196069993,41.700001,41.700001,NA,NA
2019-03-18,39.24188196069993,41.700001,41.700001,NA,NA
2019-03-19,37.96204988807159,40.34,40.34,NA,NA
2019-03-20,36.34343898649664,38.619999,38.619999,NA,NA
2019-03-21,37.66091315123017,40.02,40.02,NA,NA
2019-03-22,36.437546098864196,38.720001,38.720001,NA,NA
2019-03-25,35.232997269393906,37.439999,37.439999,NA,NA
2019-03-26,35.32710438176145,37.540001,37.540001,NA,NA
2019-03-27,34.7436491309743,36.919998,36.919998,NA,NA
2019-03-28,34.2543056978162,36.400002,36.400002,NA,NA
2019-03-29,34.54602908847442,36.709999,36.709999,NA,NA
2019-04-01,34.677775469790234,36.849998,36.849998,NA,NA
2019-04-02,34.141376598343754,36.279999,36.279999,NA,NA
2019-04-03,33.95316896097478,36.080002,36.080002,NA,NA
2019-04-04,34.59308076255359,36.759998,36.759998,NA,NA
2019-04-05,35.45885076307728,37.68,37.68,NA,NA
2019-04-08,35.2612307205774,37.470001,37.470001,NA,NA
2019-04-09,35.11066235215669,37.310001,37.310001,NA,NA
2019-04-10,34.32958799992195,36.48,36.48,NA,NA
2019-04-11,34.90362990452591,37.09,37.09,NA,NA
2019-04-12,35.317691976630556,37.529999,37.529999,NA,NA
2019-04-15,35.317691976630556,37.529999,37.529999,NA,NA
2019-04-16,35.524724424261336,37.75,37.75,NA,NA
2019-04-17,36.55047143412743,38.84,38.84,NA,NA
2019-04-18,36.17404957202335,38.439999,38.439999,NA,NA
2019-04-22,35.477672750182165,37.700001,37.700001,NA,NA
2019-04-23,35.83527356623366,38.080002,38.080002,NA,NA
2019-04-24,35.72234446676122,37.959999,37.959999,NA,NA
2019-04-25,35.90114722741772,38.150002,38.150002,NA,NA
2019-04-26,36.21169260518082,38.48,38.48,NA,NA
2019-04-29,36.889251204126325,39.200001,39.200001,NA,NA
2019-04-30,36.69163116162645,38.990002,38.990002,NA,NA
2019-05-01,37.07746260570452,39.400002,39.400002,NA,NA
2019-05-02,35.08242890097319,37.279999,37.279999,NA,NA
2019-05-03,35.2612307205774,37.470001,37.470001,NA,NA
2019-05-06,35.684701433603735,37.919998,37.919998,NA,NA
2019-05-07,35.06360691386831,37.259998,37.259998,NA,NA
2019-05-08,35.21417528228902,37.419998,37.419998,NA,NA
2019-05-09,36.230513651233416,38.5,38.5,NA,NA
2019-05-10,36.25874427925999,38.529999,38.529999,NA,NA
2019-05-13,35.73175687189212,37.970001,37.970001,NA,NA
2019-05-14,35.65647080557716,37.889999,37.889999,NA,NA
2019-05-15,35.48708139110386,37.709999,37.709999,NA,NA
2019-05-16,34.57426348071021,36.740002,36.740002,NA,NA
2019-05-17,35.34131587010335,37.32,37.32,0.23,NA
2019-05-20,35.17085841571068,37.139999,37.139999,NA,NA
2019-05-21,35.69169774391424,37.689999,37.689999,NA,NA
2019-05-22,35.151918803776,37.119999,37.119999,NA,NA
2019-05-23,34.95305382544251,36.91,36.91,NA,NA
2019-05-24,34.962521737448654,36.919998,36.919998,NA,NA
2019-05-28,34.69736811734381,36.639999,36.639999,NA,NA
2019-05-29,33.89243650408131,35.790001,35.790001,NA,NA
2019-05-30,33.35265756394308,35.220001,35.220001,NA,NA
2019-05-31,33.36212642292982,35.23,35.23,NA,NA
2019-06-03,32.42461752612461,34.240002,34.240002,NA,NA
2019-06-04,32.65189097537951,34.48,34.48,NA,NA
2019-06-05,32.538254250752054,34.360001,34.360001,NA,NA
2019-06-06,32.31097701357477,34.119999,34.119999,NA,NA
2019-06-07,32.20680820095346,34.009998,34.009998,NA,NA
2019-06-10,32.22574875986873,34.029999,34.029999,NA,NA
2019-06-11,32.367796796359386,34.18,34.18,NA,NA
2019-06-12,33.19166896853715,35.049999,35.049999,NA,NA
2019-06-13,33.41894620571444,35.290001,35.290001,NA,NA
2019-06-14,33.37159812285835,35.240002,35.240002,NA,NA
2019-06-17,34.214409906970786,36.130001,36.130001,NA,NA
2019-06-18,34.27122684881362,36.189999,36.189999,NA,NA
2019-06-19,34.081833570408655,35.990002,35.990002,NA,NA
2019-06-20,33.69357152574783,35.580002,35.580002,NA,NA
2019-06-21,34.261757989826876,36.18,36.18,NA,NA
2019-06-24,33.90190441608746,35.799999,35.799999,NA,NA
2019-06-25,33.46629428857054,35.34,35.34,NA,NA
2019-06-26,33.58940271312652,35.470001,35.470001,NA,NA
2019-06-27,34.081833570408655,35.990002,35.990002,NA,NA
2019-06-28,34.69736811734381,36.639999,36.639999,NA,NA
2019-07-01,34.01554114071491,35.919998,35.919998,NA,NA
2019-07-02,34.65002003448772,36.59,36.59,NA,NA
2019-07-03,34.42274279731042,36.349998,36.349998,NA,NA
2019-07-05,34.659487946493854,36.599998,36.599998,NA,NA
2019-07-08,34.214409906970786,36.130001,36.130001,NA,NA
2019-07-09,34.11024109434948,36.02,36.02,NA,NA
2019-07-10,34.22387781897694,36.139999,36.139999,NA,NA
2019-07-11,34.365926802448186,36.290001,36.290001,NA,NA
2019-07-12,35.000401908298606,36.959999,36.959999,NA,NA
2019-07-15,35.047749991154696,37.009998,37.009998,NA,NA
2019-07-16,34.744717147180495,36.689999,36.689999,NA,NA
2019-07-17,34.25228628989835,36.169998,36.169998,NA,NA
2019-07-18,34.612139863637765,36.549999,36.549999,NA,NA
2019-07-19,34.49850313901032,36.43,36.43,NA,NA
2019-07-22,34.185997648126985,36.099998,36.099998,NA,NA
2019-07-23,34.29963816067683,36.220001,36.220001,NA,NA
2019-07-24,34.659487946493854,36.599998,36.599998,NA,NA
2019-07-25,35.199266886632095,37.169998,37.169998,NA,NA
2019-07-26,35.23714705748204,37.209999,37.209999,NA,NA
2019-07-29,35.52124028952157,37.509998,37.509998,NA,NA
2019-07-30,35.81480616847022,37.82,37.82,NA,NA
2019-07-31,35.34131587010335,37.32,37.32,NA,NA
2019-08-01,34.93411326652724,36.889999,36.889999,NA,NA
2019-08-02,34.68790020533766,36.630001,36.630001,NA,NA
2019-08-05,34.138649565270896,36.049999,36.049999,NA,NA
2019-08-06,34.517443697925586,36.450001,36.450001,NA,NA
2019-08-07,35.07616224999849,37.040001,37.040001,NA,NA
2019-08-08,33.26742931023704,35.130001,35.130001,NA,NA
2019-08-09,33.52311501833575,35.400002,35.400002,NA,NA
2019-08-12,33.09697280282497,34.950001,34.950001,NA,NA
2019-08-13,33.20114066846568,35.060001,35.060001,NA,NA
2019-08-14,31.90377535697926,33.689999,33.689999,NA,NA
2019-08-15,31.013614543030133,32.75,32.75,NA,NA
2019-08-16,31.240891780207424,32.990002,32.990002,NA,NA
2019-08-19,32.07423186439133,33.869999,33.869999,NA,NA
2019-08-20,31.809078244286482,33.59,33.59,NA,NA
2019-08-21,31.638621736874402,33.41,33.41,NA,NA
2019-08-22,31.29770777506966,33.049999,33.049999,NA,NA
2019-08-23,30.066633946296392,31.75,31.75,NA,NA
2019-08-26,30.37913943717972,32.080002,32.080002,NA,NA
2019-08-27,30.237090453708465,31.93,31.93,NA,NA
2019-08-28,30.104514117146337,31.790001,31.790001,NA,NA
2019-08-29,31.00414663102399,32.740002,32.740002,NA,NA
2019-08-30,31.411344499697115,33.169998,33.169998,NA,NA
2019-09-03,31.24923563307668,32.77,32.77,0.23,NA
2019-09-04,32.00257488847387,33.560001,33.560001,NA,NA
2019-09-05,32.66055295797608,34.25,34.25,NA,NA
2019-09-06,32.641481102234195,34.23,34.23,NA,NA
2019-09-09,32.708231643738,34.299999,34.299999,NA,NA
2019-09-10,32.708231643738,34.299999,34.299999,NA,NA
2019-09-11,32.422154761202535,34,34,NA,NA
2019-09-12,32.221901229505534,33.790001,33.790001,NA,NA
2019-09-13,32.26004589458209,33.830002,33.830002,NA,NA
2019-09-16,32.040715739179284,33.599998,33.599998,NA,NA
2019-09-17,31.33505993750794,32.860001,32.860001,NA,NA
2019-09-18,31.125267617161647,32.639999,32.639999,NA,NA
2019-09-19,30.5531138520907,32.040001,32.040001,NA,NA
2019-09-20,30.772439239529582,32.27,32.27,NA,NA
2019-09-23,30.772439239529582,32.27,32.27,NA,NA
2019-09-24,30.12399614430553,31.59,31.59,NA,NA
2019-09-25,30.52450320769952,32.009998,32.009998,NA,NA
2019-09-26,29.990494107705132,31.450001,31.450001,NA,NA
2019-09-27,29.980958179834186,31.440001,31.440001,NA,NA
2019-09-30,30.07154854101535,31.535,31.535,NA,NA
2019-10-01,29.79023866882256,31.24,31.24,NA,NA
2019-10-02,29.00829258340533,30.42,30.42,NA,NA
2019-10-03,29.046435341296306,30.459999,30.459999,NA,NA
2019-10-04,29.151331501469453,30.57,30.57,NA,NA
2019-10-07,29.17993928508228,30.6,30.6,NA,NA
2019-10-08,28.660231216115946,30.055,30.055,NA,NA
2019-10-09,28.82710995385743,30.23,30.23,NA,NA
2019-10-10,29.103651862114745,30.52,30.52,NA,NA
2019-10-11,30.000028128390497,31.459999,31.459999,NA,NA
2019-10-14,29.933276633293904,31.389999,31.389999,NA,NA
2019-10-15,30.228892304478677,31.700001,31.700001,NA,NA
2019-10-16,30.505433259143206,31.99,31.99,NA,NA
2019-10-17,30.495897331272264,31.98,31.98,NA,NA
2019-10-18,30.715222718711146,32.209999,32.209999,NA,NA
2019-10-21,31.220629756649423,32.740002,32.740002,NA,NA
2019-10-22,31.897679681893514,33.450001,33.450001,NA,NA
2019-10-23,31.697426150196517,33.240002,33.240002,NA,NA
2019-10-24,30.80104606954962,32.299999,32.299999,NA,NA
2019-10-25,30.905942229722765,32.41,32.41,NA,NA
2019-10-28,31.45902795342297,32.990002,32.990002,NA,NA
2019-10-29,31.315987128173273,32.84,32.84,NA,NA
2019-10-30,30.591258517167258,32.080002,32.080002,NA,NA
2019-10-31,30.5531138520907,32.040001,32.040001,NA,NA
2019-11-01,30.8868694203881,32.389999,32.389999,NA,NA
2019-11-04,31.039444266323166,32.549999,32.549999,NA,NA
2019-11-05,31.311218210645016,32.834999,32.834999,NA,NA
2019-11-06,31.563919345632186,33.099998,33.099998,NA,NA
2019-11-07,33.318531027478286,34.939999,34.939999,NA,NA
2019-11-08,33.50924958489713,35.139999,35.139999,NA,NA
2019-11-11,33.36621352761136,34.990002,34.990002,NA,NA
2019-11-12,32.884648216536,34.485001,34.485001,NA,NA
2019-11-13,32.67008697866145,34.259998,34.259998,NA,NA
2019-11-14,32.63194612795605,34.220001,34.220001,NA,NA
2019-11-15,32.679624813717965,34.27,34.27,NA,NA
2019-11-18,33.55692922425183,35.189999,35.189999,NA,NA
2019-11-19,34.577272552849834,36.259998,36.259998,NA,NA
2019-11-20,34.22444417521777,35.889999,35.889999,NA,NA
2019-11-21,34.04326345285545,35.700001,35.700001,NA,NA
2019-11-22,34.00511878777889,35.66,35.66,NA,NA
2019-11-25,34.024190643520775,35.68,35.68,NA,NA
2019-11-26,34.26258884029432,35.93,35.93,NA,NA
2019-11-27,34.1195489686374,35.779999,35.779999,NA,NA
2019-11-29,34.10047615930274,35.759998,35.759998,NA,NA
2019-12-02,33.947901313367666,35.599998,35.599998,NA,NA
2019-12-03,33.55692922425183,35.189999,35.189999,NA,NA
2019-12-04,33.85254394184382,35.5,35.5,NA,NA
2019-12-05,33.85254394184382,35.5,35.5,NA,NA
2019-12-06,33.77625461169071,35.419998,35.419998,NA,NA
2019-12-09,33.96697412270234,35.619999,35.619999,NA,NA
2019-12-10,34.14815865943581,35.810001,35.810001,NA,NA
2019-12-11,34.48191518132599,36.16,36.16,NA,NA
2019-12-12,35.139892297235406,36.849998,36.849998,NA,NA
2019-12-13,35.06360678145345,36.77,36.77,NA,NA
2019-12-16,35.10175144653,36.810001,36.810001,NA,NA
2019-12-17,35.435507968420175,37.16,37.16,NA,NA
2019-12-18,35.216181627388515,36.93,36.93,NA,NA
2019-12-19,35.28293312248511,37,37,NA,NA
2019-12-20,35.44504198910555,37.169998,37.169998,NA,NA
2019-12-23,35.71681974779854,37.455002,37.455002,NA,NA
2019-12-24,35.56901000502058,37.299999,37.299999,NA,NA
2019-12-26,35.8264810111288,37.57,37.57,NA,NA
2019-12-27,35.67390616519373,37.41,37.41,NA,NA
2019-12-30,35.35922245263822,37.080002,37.080002,NA,NA
2019-12-31,35.3496846175817,37.07,37.07,NA,NA
2020-01-02,35.3496846175817,37.07,37.07,NA,NA
2020-01-03,34.96348049240134,36.665001,36.665001,NA,NA
2020-01-06,34.872888224034604,36.57,36.57,NA,NA
2020-01-07,35.3496846175817,37.07,37.07,NA,NA
2020-01-08,35.38782928265825,37.110001,37.110001,NA,NA
2020-01-09,35.45457982416207,37.18,37.18,NA,NA
2020-01-10,35.01592809569153,36.720001,36.720001,NA,NA
2020-01-13,35.27339910179974,36.990002,36.990002,NA,NA
2020-01-14,35.53086533994403,37.259998,37.259998,NA,NA
2020-01-15,35.74065766029032,37.48,37.48,NA,NA
2020-01-16,37.29501485684664,39.110001,39.110001,NA,NA
2020-01-17,37.51434024428552,39.34,39.34,NA,NA
2020-01-21,37.28547606819734,39.099998,39.099998,NA,NA
2020-01-22,37.275942047511975,39.09,39.09,NA,NA
2020-01-23,35.75019549534684,37.490002,37.490002,NA,NA
2020-01-24,34.91103288911116,36.610001,36.610001,NA,NA
2020-01-27,35.16850294162659,36.880001,36.880001,NA,NA
2020-01-28,35.41643515908551,37.139999,37.139999,NA,NA
2020-01-29,34.882426059091124,36.580002,36.580002,NA,NA
2020-01-30,35.31153995250514,37.029999,37.029999,NA,NA
2020-01-31,35.35922245263822,37.080002,37.080002,NA,NA
2020-02-03,35.84555286687068,37.59,37.59,NA,NA
2020-02-04,36.26513273959934,38.029999,38.029999,NA,NA
2020-02-05,36.87543116974683,38.669998,38.669998,NA,NA
2020-02-06,35.38782928265825,37.110001,37.110001,NA,NA
2020-02-07,35.28293312248511,37,37,NA,NA
2020-02-10,35.56901000502058,37.299999,37.299999,NA,NA
2020-02-11,35.406901138400144,37.130001,37.130001,NA,NA
2020-02-12,35.921838382652645,37.669998,37.669998,NA,NA
2020-02-13,36.2365259095793,38,38,NA,NA
2020-02-14,36.04580639856768,37.799999,37.799999,NA,NA
2020-02-18,36.02673454282579,37.779999,37.779999,NA,NA
2020-02-19,36.26513273959934,38.029999,38.029999,NA,NA
2020-02-20,35.31153995250514,37.029999,37.029999,NA,NA
2020-02-21,34.319806314705545,35.990002,35.990002,NA,NA
2020-02-24,33.08013283070474,34.689999,34.689999,NA,NA
2020-02-25,31.668815505805338,33.209999,33.209999,NA,NA
2020-02-26,31.268308442411346,32.790001,32.790001,NA,NA
2020-02-27,29.88559794753198,31.34,31.34,NA,NA
2020-02-28,29.313442275275467,30.74,30.74,NA,NA
2020-03-02,30.619865347187293,32.110001,32.110001,NA,NA
2020-03-03,29.76504383137674,30.99,30.99,0.23,NA
2020-03-04,29.70741547933148,30.93,30.93,NA,NA
2020-03-05,28.276312364013393,29.440001,29.440001,NA,NA
2020-03-06,27.70002788308826,28.84,28.84,NA,NA
2020-03-09,26.393785236729038,27.48,27.48,NA,NA
2020-03-10,27.959356427764465,29.110001,29.110001,NA,NA
2020-03-11,26.68192795742787,27.780001,27.780001,NA,NA
2020-03-12,25.183588883306047,26.219999,26.219999,NA,NA
2020-03-13,25.11635676639244,26.15,26.15,NA,NA
2020-03-16,23.06094554344484,24.01,24.01,NA,NA
2020-03-17,24.146278546491367,25.139999,25.139999,NA,NA
2020-03-18,21.456956411518437,22.34,22.34,NA,NA
2020-03-19,21.917983227880516,22.82,22.82,NA,NA
2020-03-20,20.16031849050009,20.99,20.99,NA,NA
2020-03-23,19.40154614904337,20.200001,20.200001,NA,NA
2020-03-24,21.40893374528659,22.290001,22.290001,NA,NA
2020-03-25,23.185806012403702,24.139999,24.139999,NA,NA
2020-03-26,23.982998215696465,24.969999,24.969999,NA,NA
2020-03-27,21.62023674231334,22.51,22.51,NA,NA
2020-03-30,23.349086343198607,24.309999,24.309999,NA,NA
2020-03-31,22.695965020018992,23.629999,23.629999,NA,NA
2020-04-01,21.456956411518437,22.34,22.34,NA,NA
2020-04-02,21.773912347767368,22.67,22.67,NA,NA
2020-04-03,21.418536549682397,22.299999,22.299999,NA,NA
2020-04-06,24.069440743764353,25.059999,25.059999,NA,NA
2020-04-07,24.48244489389458,25.49,25.49,NA,NA
2020-04-08,25.260426686033057,26.299999,26.299999,NA,NA
2020-04-09,24.962681160938413,25.99,25.99,NA,NA
2020-04-13,24.962681160938413,25.99,25.99,NA,NA
2020-04-14,25.462126878664,26.51,26.51,NA,NA
2020-04-15,24.684145086525525,25.700001,25.700001,NA,NA
2020-04-16,24.5304694810715,25.540001,25.540001,NA,NA
2020-04-17,25.812699353606,26.875,26.875,NA,NA
2020-04-20,25.02991327785202,26.059999,26.059999,NA,NA
2020-04-21,24.5304694810715,25.540001,25.540001,NA,NA
2020-04-22,23.790904669351463,24.77,24.77,NA,NA
2020-04-23,23.877348157891888,24.860001,24.860001,NA,NA
2020-04-24,23.853334423594628,24.834999,24.834999,NA,NA
2020-04-27,25.34686921410095,26.389999,26.389999,NA,NA
2020-04-28,26.067223614666695,27.139999,27.139999,NA,NA
2020-04-29,27.24860675253959,28.370001,28.370001,NA,NA
2020-04-30,24.84742541732043,25.870001,25.870001,NA,NA
2020-05-01,24.424816541849324,25.43,25.43,NA,NA
2020-05-04,24.00701194999372,24.995001,24.995001,NA,NA
2020-05-05,23.14738807151273,24.1,24.1,NA,NA
2020-05-06,23.82932261024244,24.809999,24.809999,NA,NA
2020-05-07,24.251931485713545,25.25,25.25,NA,NA
2020-05-08,24.97228588627929,26,26,NA,NA
2020-05-11,24.655329950030364,25.67,25.67,NA,NA
2020-05-12,24.352781101792747,25.355,25.355,NA,NA
2020-05-13,23.55078653582955,24.52,24.52,NA,NA
2020-05-14,24.75137720343913,25.77,25.77,NA,NA
2020-05-15,25.02991327785202,26.059999,26.059999,NA,NA
2020-05-18,26.384179550915626,27.469999,27.469999,NA,NA
2020-05-19,26.480227764796926,27.57,27.57,NA,NA
2020-05-20,26.71074021250543,27.809999,27.809999,NA,NA
2020-05-21,26.528252351973844,27.620001,27.620001,NA,NA
2020-05-22,26.701135487164557,27.799999,27.799999,NA,NA
2020-05-26,27.88251862503745,29.030001,29.030001,NA,NA
2020-05-27,28.478010635699267,29.65,29.65,NA,NA
2020-05-28,27.786470411156152,28.93,28.93,NA,NA
2020-05-29,28.01698381933719,29.17,29.17,NA,NA
2020-06-01,28.372359617422163,29.540001,29.540001,NA,NA
2020-06-02,28.141844288296053,29.299999,29.299999,NA,NA
2020-06-03,29.553739873877454,30.77,30.77,NA,NA
2020-06-04,29.32322742616895,30.530001,30.530001,NA,NA
2020-06-05,29.63057767660447,30.85,30.85,NA,NA
2020-06-08,31.196147907167358,32.48,32.48,NA,NA
2020-06-09,29.592157814768427,30.809999,30.809999,NA,NA
2020-06-10,28.94864121692969,30.139999,30.139999,NA,NA
2020-06-11,26.95085834602735,28.059999,28.059999,NA,NA
2020-06-12,27.17176894981258,28.290001,28.290001,NA,NA
2020-06-15,28.132241483900245,29.290001,29.290001,NA,NA
2020-06-16,27.190976479549267,28.309999,28.309999,NA,NA
2020-06-17,26.960464031840758,28.07,28.07,NA,NA
2020-06-18,27.853703488542287,29,29,NA,NA
2020-06-19,27.200582165362675,28.32,28.32,NA,NA
2020-06-22,26.9988838936768,28.110001,28.110001,NA,NA
2020-06-23,27.142953813317416,28.26,28.26,NA,NA
2020-06-24,26.297737022847738,27.379999,27.379999,NA,NA
2020-06-25,25.86552534298082,26.93,26.93,NA,NA
2020-06-26,24.684145086525525,25.700001,25.700001,NA,NA
2020-06-29,25.83671116695819,26.9,26.9,NA,NA
2020-06-30,25.75987336423118,26.82,26.82,NA,NA
2020-07-01,25.86552534298082,26.93,26.93,NA,NA
2020-07-02,25.510149544895853,26.559999,26.559999,NA,NA
2020-07-06,25.452522153323123,26.5,26.5,NA,NA
2020-07-07,24.67454036118465,25.690001,25.690001,NA,NA
2020-07-08,24.299954151945393,25.299999,25.299999,NA,NA
2020-07-09,23.40671661618893,24.370001,24.370001,NA,NA
2020-07-10,24.31916456309968,25.32,25.32,NA,NA
2020-07-13,23.973393490355587,24.959999,24.959999,NA,NA
2020-07-14,24.04062848868679,25.030001,25.030001,NA,NA
2020-07-15,25.02991327785202,26.059999,26.059999,NA,NA
2020-07-16,25.135566217074196,26.17,26.17,NA,NA
2020-07-17,24.280746622208706,25.280001,25.280001,NA,NA
2020-07-20,23.781299944010588,24.76,24.76,NA,NA
2020-07-21,24.396002365826693,25.4,25.4,NA,NA
2020-07-22,24.885843358211403,25.91,25.91,NA,NA
2020-07-23,25.20279929446033,26.24,26.24,NA,NA
2020-07-24,25.606197758777153,26.66,26.66,NA,NA
2020-07-27,24.70335261626221,25.719999,25.719999,NA,NA
2020-07-28,24.7225630274165,25.74,25.74,NA,NA
2020-07-29,24.837820691979555,25.860001,25.860001,NA,NA
2020-07-30,24.79940083014351,25.82,25.82,NA,NA
2020-07-31,24.75137720343913,25.77,25.77,NA,NA
2020-08-03,25.318056959023387,26.360001,26.360001,NA,NA
2020-08-04,25.615802484118028,26.67,26.67,NA,NA
2020-08-05,23.74768340531752,24.725,24.725,NA,NA
2020-08-06,24.00220862685075,24.99,24.99,NA,NA
2020-08-07,23.6948574159427,24.67,24.67,NA,NA
2020-08-10,23.435529831739025,24.4,24.4,NA,NA
2020-08-11,23.68525269060182,24.66,24.66,NA,NA
2020-08-12,23.934975549464614,24.92,24.92,NA,NA
2020-08-13,24.559282696621597,25.57,25.57,NA,NA
2020-08-14,24.7225630274165,25.74,25.74,NA,NA
2020-08-17,24.549677010808185,25.559999,25.559999,NA,NA
2020-08-18,24.621713411337296,25.635,25.635,NA,NA
2020-08-19,24.828215006166143,25.85,25.85,NA,NA
2020-08-20,24.866632947057113,25.889999,25.889999,NA,NA
2020-08-21,24.97228588627929,26,26,NA,NA
2020-08-24,25.913548969685205,26.98,26.98,NA,NA
2020-08-25,25.83671116695819,26.9,26.9,NA,NA
2020-08-26,26.076829300480107,27.15,27.15,NA,NA
2020-08-27,26.480227764796926,27.57,27.57,NA,NA
2020-08-28,26.715544496120938,27.815001,27.815001,NA,NA
2020-08-31,26.758765760154883,27.860001,27.860001,NA,NA
2020-09-01,26.57475688174661,27.440001,27.440001,0.23,NA
2020-09-02,27.000880768493364,27.879999,27.879999,NA,NA
2020-09-03,26.487593812980176,27.35,27.35,NA,NA
2020-09-04,26.787818825119988,27.66,27.66,NA,NA
2020-09-08,26.81687382702065,27.690001,27.690001,NA,NA
2020-09-09,27.3107923953797,28.200001,28.200001,NA,NA
2020-09-10,27.301107717568737,28.190001,28.190001,NA,NA
2020-09-11,27.252682391578364,28.139999,28.139999,NA,NA
2020-09-14,27.756286606216154,28.66,28.66,NA,NA
2020-09-15,27.707864185629127,28.610001,28.610001,NA,NA
2020-09-16,28.41484469736155,29.34,29.34,NA,NA
2020-09-17,27.727231604315488,28.629999,28.629999,NA,NA
2020-09-18,27.078358190981056,27.959999,27.959999,NA,NA
2020-09-21,25.93556814622314,26.780001,26.780001,NA,NA
2020-09-22,25.925882499944397,26.77,26.77,NA,NA
2020-09-23,25.093000208201694,25.91,25.91,NA,NA
2020-09-24,25.373856833187364,26.200001,26.200001,NA,NA
2020-09-25,25.858090723735447,26.700001,26.700001,NA,NA
2020-09-28,26.962143025717296,27.84,27.84,NA,NA
2020-09-29,26.894350281040566,27.77,27.77,NA,NA
2020-09-30,26.952458347906333,27.83,27.83,NA,NA
2020-10-01,27.136467226314608,28.02,28.02,NA,NA
2020-10-02,27.194575293180375,28.08,28.08,NA,NA
2020-10-05,27.80470902680318,28.709999,28.709999,NA,NA
2020-10-06,27.039620448204992,27.92,27.92,NA,NA
2020-10-07,28.056510649888185,28.969999,28.969999,NA,NA
2020-10-08,28.627906640734924,29.559999,29.559999,NA,NA
2020-10-09,28.269575498664903,29.190001,29.190001,NA,NA
2020-10-12,28.02745855339086,28.940001,28.940001,NA,NA
2020-10-13,26.371377679248635,27.23,27.23,NA,NA
2020-10-14,26.080837344919786,26.93,26.93,NA,NA
2020-10-15,26.080837344919786,26.93,26.93,NA,NA
2020-10-16,26.013045568710833,26.860001,26.860001,NA,NA
2020-10-19,25.199531664122272,26.02,26.02,NA,NA
2020-10-20,25.228584729087377,26.049999,26.049999,NA,NA
2020-10-21,25.732188943725166,26.57,26.57,NA,NA
2020-10-22,26.594124300432973,27.459999,27.459999,NA,NA
2020-10-23,26.22610751208421,27.08,27.08,NA,NA
2020-10-26,25.577234098749777,26.41,26.41,NA,NA
2020-10-27,25.35932787953536,26.184999,26.184999,NA,NA
2020-10-28,24.511918571076215,25.309999,25.309999,NA,NA
2020-10-29,24.763721162628997,25.57,25.57,NA,NA
2020-10-30,25.683765554670355,26.52,26.52,NA,NA
2020-11-02,26.53601720203498,27.4,27.4,NA,NA
2020-11-03,26.187369769308145,27.040001,27.040001,NA,NA
2020-11-04,24.821828261026987,25.629999,25.629999,NA,NA
2020-11-05,25.77092862343679,26.610001,26.610001,NA,NA
2020-11-06,25.131739887913323,25.950001,25.950001,NA,NA
2020-11-09,25.42227925377439,26.25,26.25,NA,NA
2020-11-10,26.003359922432093,26.85,26.85,NA,NA
2020-11-11,26.594124300432973,27.459999,27.459999,NA,NA
2020-11-12,24.831512938837946,25.639999,25.639999,NA,NA
2020-11-13,25.795139349496417,26.635,26.635,NA,NA
2020-11-16,26.322954290193827,27.18,27.18,NA,NA
2020-11-17,27.27205271566807,28.16,28.16,NA,NA
2020-11-18,26.787818825119988,27.66,27.66,NA,NA
2020-11-19,26.836241245707015,27.709999,27.709999,NA,NA
2020-11-20,26.952458347906333,27.83,27.83,NA,NA
2020-11-23,27.63038676314143,28.530001,28.530001,NA,NA
2020-11-24,28.550430186715012,29.48,29.48,NA,NA
2020-11-25,28.37610501764992,29.299999,29.299999,NA,NA
2020-11-27,28.240520496764237,29.16,29.16,NA,NA
2020-11-30,27.930610806813466,28.84,28.84,NA,NA
2020-12-01,29.1896179537707,30.139999,30.139999,NA,NA
2020-12-02,29.63511410154272,30.6,30.6,NA,NA
2020-12-03,29.363943122835792,30.32,30.32,NA,NA
2020-12-04,28.89907858790963,29.84,29.84,NA,NA
2020-12-07,28.744123742934246,29.68,29.68,NA,NA
2020-12-08,28.332523967500595,29.254999,29.254999,NA,NA
2020-12-09,28.31799791925193,29.24,29.24,NA,NA
2020-12-10,28.19209807617721,29.110001,29.110001,NA,NA
2020-12-11,28.395475341739626,29.32,29.32,NA,NA
2020-12-14,27.872503708415472,28.780001,28.780001,NA,NA
2020-12-15,27.678809183728458,28.58,28.58,NA,NA
2020-12-16,27.55290934065374,28.450001,28.450001,NA,NA
2020-12-17,27.640071440952394,28.540001,28.540001,NA,NA
2020-12-18,27.27205271566807,28.16,28.16,NA,NA
2020-12-21,26.845925923517978,27.719999,27.719999,NA,NA
2020-12-22,26.41011639049248,27.27,27.27,NA,NA
2020-12-23,27.223630295081044,28.110001,28.110001,NA,NA
2020-12-24,27.417321914364717,28.309999,28.309999,NA,NA
2020-12-28,28.221150172674534,29.139999,29.139999,NA,NA
2020-12-29,28.104935007410774,29.02,29.02,NA,NA
2020-12-30,28.172727752087507,29.09,29.09,NA,NA
2020-12-31,28.20178275398817,29.120001,29.120001,NA,NA
2021-01-04,27.9015558049128,28.809999,28.809999,NA,NA
2021-01-05,28.516533814376647,29.445,29.445,NA,NA
2021-01-06,31.000651735952754,32.009998,32.009998,NA,NA
2021-01-07,29.964394115583197,30.940001,30.940001,NA,NA
2021-01-08,29.141195533183673,30.09,30.09,NA,NA
2021-01-11,29.37362780064675,30.33,30.33,NA,NA
2021-01-12,28.831285843232898,29.77,29.77,NA,NA
2021-01-13,29.01529375317339,29.959999,29.959999,NA,NA
2021-01-14,30.28398751487715,31.27,31.27,NA,NA
2021-01-15,30.497050426718307,31.49,31.49,NA,NA
2021-01-19,29.06371811069598,30.01,30.01,NA,NA
2021-01-20,30.04187056960311,31.02,31.02,NA,NA
2021-01-21,30.061240893692812,31.040001,31.040001,NA,NA
2021-01-22,29.208988277860406,30.16,30.16,NA,NA
2021-01-25,31.078131095376012,32.09,32.09,NA,NA
2021-01-26,33.82857959368912,34.93,34.93,NA,NA
2021-01-27,33.295923282554014,34.380001,34.380001,NA,NA
2021-01-28,30.894122216967734,31.9,31.9,NA,NA
2021-01-29,30.196825414578495,31.18,31.18,NA,NA
2021-02-01,30.874751892878034,31.879999,31.879999,NA,NA
2021-02-02,29.547952001244067,30.51,30.51,NA,NA
2021-02-03,29.325205380059725,30.280001,30.280001,NA,NA
2021-02-04,29.46078990094541,30.42,30.42,NA,NA
2021-02-05,30.429257682041577,31.42,31.42,NA,NA
2021-02-08,31.659210795565926,32.689999,32.689999,NA,NA
2021-02-09,29.76101491308522,30.73,30.73,NA,NA
2021-02-10,30.777907051703977,31.780001,31.780001,NA,NA
2021-02-11,30.990968995077353,32,32,NA,NA
2021-02-12,31.562364985924095,32.59,32.59,NA,NA
2021-02-16,30.72948269418139,31.73,31.73,NA,NA
2021-02-17,30.74885204980331,31.75,31.75,NA,NA
2021-02-18,31.1604498883014,32.174999,32.174999,NA,NA
2021-02-19,32.71484067696075,33.779999,33.779999,NA,NA
2021-02-22,33.596146357758265,34.689999,34.689999,NA,NA
2021-02-23,33.044119722533445,34.119999,34.119999,NA,NA
2021-02-24,32.96664423698131,34.040001,34.040001,NA,NA
2021-02-25,31.998176455885144,33.040001,33.040001,NA,NA
2021-02-26,32.25966275678111,33.310001,33.310001,NA,NA
2021-03-01,33.692995072803434,34.790001,34.790001,NA,NA
2021-03-02,36.75335326106733,37.950001,37.950001,NA,NA
2021-03-03,38.08983976744782,39.330002,39.330002,NA,NA
2021-03-04,37.857405563049184,39.09,39.09,NA,NA
2021-03-05,39.98803564992853,41.290001,41.290001,NA,NA
2021-03-08,40.995243110736325,42.330002,42.330002,NA,NA
2021-03-09,39.26195068173366,40.32,40.32,0.23,NA
2021-03-10,40.37203462308351,41.459999,41.459999,NA,NA
2021-03-11,40.7469336691244,41.845001,41.845001,NA,NA
2021-03-12,41.65739610373549,42.779999,42.779999,NA,NA
2021-03-15,41.5794973554558,42.700001,42.700001,NA,NA
2021-03-16,43.02065925394328,44.18,44.18,NA,NA
2021-03-17,41.793721347621705,42.919998,42.919998,NA,NA
2021-03-18,41.754773920999256,42.880001,42.880001,NA,NA
2021-03-19,41.798591114867726,42.924999,42.924999,NA,NA
2021-03-22,42.50456909180495,43.650002,43.650002,NA,NA
2021-03-23,40.712852114713165,41.810001,41.810001,NA,NA
2021-03-24,39.06719796848223,40.119999,40.119999,NA,NA
2021-03-25,39.24247453402569,40.299999,40.299999,NA,NA
2021-03-26,36.80807779036661,37.799999,37.799999,NA,NA
2021-03-29,36.25303630657103,37.23,37.23,NA,NA
2021-03-30,36.136186236634096,37.110001,37.110001,NA,NA
2021-03-31,35.16242753917046,36.110001,36.110001,NA,NA
2021-04-01,35.35717927866319,36.310001,36.310001,NA,NA
2021-04-05,35.44481853519362,36.400002,36.400002,NA,NA
2021-04-06,36.07775876726888,37.049999,37.049999,NA,NA
2021-04-07,36.330937976126826,37.310001,37.310001,NA,NA
2021-04-08,36.0290718061544,37,37,NA,NA
2021-04-09,36.47699983322897,37.459999,37.459999,NA,NA
2021-04-12,36.43804851157173,37.419998,37.419998,NA,NA
2021-04-13,36.48673936772101,37.470001,37.470001,NA,NA
2021-04-14,36.25303630657103,37.23,37.23,NA,NA
2021-04-15,36.890846305892325,37.884998,37.884998,NA,NA
2021-04-16,36.94927377525753,37.945,37.945,NA,NA
2021-04-19,36.691227720429666,37.68,37.68,NA,NA
2021-04-20,36.80807779036661,37.799999,37.799999,NA,NA
2021-04-21,37.596824282829544,38.610001,38.610001,NA,NA
2021-04-22,37.11968057355497,38.119999,38.119999,NA,NA
2021-04-23,37.40207156957812,38.41,38.41,NA,NA
2021-04-26,37.197583216869454,38.200001,38.200001,NA,NA
2021-04-27,37.27548196514915,38.279999,38.279999,NA,NA
2021-04-28,36.82755393807458,37.82,37.82,NA,NA
2021-04-29,36.7788660032014,37.77,37.77,NA,NA
2021-04-30,36.43804851157173,37.419998,37.419998,NA,NA
2021-05-03,35.64930688790228,36.610001,36.610001,NA,NA
2021-05-04,35.77589649233125,36.740002,36.740002,NA,NA
2021-05-05,35.386391065828406,36.34,36.34,NA,NA
2021-05-06,36.58411426370867,37.57,37.57,NA,NA
2021-05-07,37.31443328680639,38.32,38.32,NA,NA
2021-05-10,37.811052170030244,38.830002,38.830002,NA,NA
2021-05-11,37.49457961959586,38.505001,38.505001,NA,NA
2021-05-12,36.939537162041596,37.935001,37.935001,NA,NA
2021-05-13,37.72341388725851,38.740002,38.740002,NA,NA
2021-05-14,36.282247119977555,37.259998,37.259998,NA,NA
2021-05-17,35.805107305737764,36.77,36.77,NA,NA
2021-05-18,36.369885402749276,37.349998,37.349998,NA,NA
2021-05-19,36.369885402749276,37.349998,37.349998,NA,NA
2021-05-20,36.27251148052031,37.25,37.25,NA,NA
2021-05-21,36.593853798200705,37.580002,37.580002,NA,NA
2021-05-24,36.4575246592797,37.439999,37.439999,NA,NA
2021-05-25,36.17513755829134,37.150002,37.150002,NA,NA
2021-05-26,36.52568679434346,37.509998,37.509998,NA,NA
2021-05-27,36.954143542503544,37.950001,37.950001,NA,NA
2021-05-28,36.369885402749276,37.349998,37.349998,NA,NA
2021-06-01,36.34067458934276,37.32,37.32,NA,NA
2021-06-02,35.8148439189537,36.779999,36.779999,NA,NA
2021-06-03,35.659042527359524,36.619999,36.619999,NA,NA
2021-06-04,36.21408498491379,37.189999,37.189999,NA,NA
2021-06-07,36.17513755829134,37.150002,37.150002,NA,NA
2021-06-08,35.629830740194315,36.59,36.59,NA,NA
2021-06-09,36.65227639877243,37.639999,37.639999,NA,NA
2021-06-10,36.48673936772101,37.470001,37.470001,NA,NA
2021-06-11,36.934667394795575,37.93,37.93,NA,NA
2021-06-14,36.691227720429666,37.68,37.68,NA,NA
2021-06-15,36.72043950759488,37.709999,37.709999,NA,NA
2021-06-16,36.68148818593764,37.669998,37.669998,NA,NA
2021-06-17,36.17513755829134,37.150002,37.150002,NA,NA
2021-06-18,36.64254075931519,37.630001,37.630001,NA,NA
2021-06-21,36.50621551542897,37.490002,37.490002,NA,NA
2021-06-22,36.66201690702316,37.650002,37.650002,NA,NA
2021-06-23,36.613325077115185,37.599998,37.599998,NA,NA
2021-06-24,37.29495713909842,38.299999,38.299999,NA,NA
2021-06-25,37.353384608463635,38.360001,38.360001,NA,NA
2021-06-28,37.304696673590456,38.310001,38.310001,NA,NA
2021-06-29,35.86353477510298,36.830002,36.830002,NA,NA
2021-06-30,36.15566141058337,37.130001,37.130001,NA,NA
2021-07-01,36.5646381160007,37.549999,37.549999,NA,NA
2021-07-02,36.34067458934276,37.32,37.32,NA,NA
2021-07-06,35.766156957839215,36.73,36.73,NA,NA
2021-07-07,35.44481853519362,36.400002,36.400002,NA,NA
2021-07-08,34.763186473210375,35.700001,35.700001,NA,NA
2021-07-09,35.493505496308096,36.450001,36.450001,NA,NA
2021-07-12,35.83431909290297,36.799999,36.799999,NA,NA
2021-07-13,35.006626147576284,35.950001,35.950001,NA,NA
2021-07-14,35.40586721353637,36.360001,36.360001,NA,NA
2021-07-15,34.89951171709659,35.84,35.84,NA,NA
2021-07-16,34.35420587275825,35.279999,35.279999,NA,NA
2021-07-19,33.80890294969602,34.720001,34.720001,NA,NA
2021-07-20,34.05234262406193,34.970001,34.970001,NA,NA
2021-07-21,35.24032628745016,36.189999,36.189999,NA,NA
2021-07-22,35.05531310869077,36,36,NA,NA
2021-07-23,35.24032628745016,36.189999,36.189999,NA,NA
2021-07-26,35.6006189530291,36.560001,36.560001,NA,NA
2021-07-27,35.250065821942194,36.200001,36.200001,NA,NA
2021-07-28,35.36691589187913,36.32,36.32,NA,NA
2021-07-29,35.34743974417116,36.299999,36.299999,NA,NA
2021-07-30,34.72423515155313,35.66,35.66,NA,NA
2021-08-02,34.70475900384516,35.639999,35.639999,NA,NA
2021-08-03,34.11076619839234,35.029999,35.029999,NA,NA
2021-08-04,33.9939161284554,34.91,34.91,NA,NA
2021-08-05,36.23356015886307,37.209999,37.209999,NA,NA
2021-08-06,35.522717283473305,36.48,36.48,NA,NA
2021-08-09,35.55192809687983,36.509998,36.509998,NA,NA
2021-08-10,36.009596632205124,36.98,36.98,NA,NA
2021-08-11,36.48673936772101,37.470001,37.470001,NA,NA
2021-08-12,36.05828359331961,37.029999,37.029999,NA,NA
2021-08-13,36.0290718061544,37,37,NA,NA
2021-08-16,36.21408498491379,37.189999,37.189999,NA,NA
2021-08-17,36.009596632205124,36.98,36.98,NA,NA
2021-08-18,35.6006189530291,36.560001,36.560001,NA,NA
2021-08-19,35.23058967423422,36.18,36.18,NA,NA
2021-08-20,35.795367771245736,36.759998,36.759998,NA,NA
2021-08-23,36.16539705004061,37.139999,37.139999,NA,NA
2021-08-24,36.09723491497685,37.07,37.07,NA,NA
2021-08-25,36.06802312781164,37.040001,37.040001,NA,NA
2021-08-26,35.717469022966036,36.68,36.68,NA,NA
2021-08-27,36.223824519405824,37.200001,37.200001,NA,NA
2021-08-30,36.09723491497685,37.07,37.07,NA,NA
2021-08-31,36.69509745097742,37.439999,37.439999,0.24,NA
2021-09-01,36.263852616186355,37,37,NA,NA
2021-09-02,36.430468357187614,37.169998,37.169998,NA,NA
2021-09-03,36.15604018235844,36.889999,36.889999,NA,NA
2021-09-07,36.01882658499591,36.75,36.75,NA,NA
2021-09-08,35.24454334632997,35.959999,35.959999,NA,NA
2021-09-09,35.63658695644293,36.360001,36.360001,NA,NA
2021-09-10,35.22494126383473,35.939999,35.939999,NA,NA
2021-09-13,35.616983893843575,36.34,36.34,NA,NA
2021-09-14,34.59767462398718,35.299999,35.299999,NA,NA
2021-09-15,35.83260778139529,36.560001,36.560001,NA,NA
2021-09-16,36.587288937566,37.330002,37.330002,NA,NA
2021-09-17,36.95972556466311,37.709999,37.709999,NA,NA
2021-09-20,36.39126713250951,37.130001,37.130001,NA,NA
2021-09-21,36.39126713250951,37.130001,37.130001,NA,NA
2021-09-22,37.44977762704401,38.209999,38.209999,NA,NA
2021-09-23,37.65559851313985,38.419998,38.419998,NA,NA
2021-09-24,38.47888597793976,39.259998,39.259998,NA,NA
2021-09-27,39.32177650533903,40.119999,40.119999,NA,NA
2021-09-28,39.03754924947048,39.830002,39.830002,NA,NA
2021-09-29,39.44919102166219,40.25,40.25,NA,NA
2021-09-30,39.311977424299656,40.110001,40.110001,NA,NA
2021-10-01,39.968645227681804,40.779999,40.779999,NA,NA
2021-10-04,40.65471909511919,41.48,41.48,NA,NA
2021-10-05,41.066364787727395,41.900002,41.900002,NA,NA
2021-10-06,40.72332540374839,41.549999,41.549999,NA,NA
2021-10-07,41.31139081891784,42.150002,42.150002,NA,NA
2021-10-08,41.40939927118577,42.25,42.25,NA,NA
2021-10-11,41.262381692263254,42.099998,42.099998,NA,NA
2021-10-12,41.16437323999532,42,42,NA,NA
2021-10-13,41.5074077234537,42.349998,42.349998,NA,NA
2021-10-14,41.60542107624226,42.450001,42.450001,NA,NA
2021-10-15,40.78213361144235,41.610001,41.610001,NA,NA
2021-10-18,41.095765951261995,41.93,41.93,NA,NA
2021-10-19,42.17387950839584,43.029999,43.029999,NA,NA
2021-10-20,42.35029825085297,43.209999,43.209999,NA,NA
2021-10-21,41.76223773620414,42.610001,42.610001,NA,NA
2021-10-22,41.67402738487146,42.52,42.52,NA,NA
2021-10-25,40.99775749899407,41.830002,41.830002,NA,NA
2021-10-26,40.76253054884299,41.59,41.59,NA,NA
2021-10-27,39.40018679552822,40.200001,40.200001,NA,NA
2021-10-28,39.94904216508245,40.759998,40.759998,NA,NA
2021-10-29,38.949339878241915,39.740002,39.740002,NA,NA
2021-11-01,40.243076342823365,41.060001,41.060001,NA,NA
2021-11-02,40.77232962988236,41.599998,41.599998,NA,NA
2021-11-03,40.75273146780362,41.580002,41.580002,NA,NA
2021-11-04,40.50770543661317,41.330002,41.330002,NA,NA
2021-11-05,40.65471909511919,41.48,41.48,NA,NA
2021-11-08,39.75302428044247,40.560001,40.560001,NA,NA
2021-11-09,39.73342219794723,40.540001,40.540001,NA,NA
2021-11-10,39.88043585645325,40.689999,40.689999,NA,NA
2021-11-11,40.33128669415605,41.150002,41.150002,NA,NA
2021-11-12,40.28227756750146,41.099998,41.099998,NA,NA
2021-11-15,40.448897228919215,41.27,41.27,NA,NA
2021-11-16,39.61580676266344,40.419998,40.419998,NA,NA
2021-11-17,39.48839616675678,40.290001,40.290001,NA,NA
2021-11-18,38.78272021682417,39.57,39.57,NA,NA
2021-11-19,38.21426178467057,38.990002,38.990002,NA,NA
2021-11-22,37.96923575348012,38.740002,38.740002,NA,NA
2021-11-23,38.3514753820331,39.130001,39.130001,NA,NA
2021-11-24,37.73400880332905,38.5,38.5,NA,NA
2021-11-26,36.871516193434545,37.619999,37.619999,NA,NA
2021-11-29,36.185442325997165,36.919998,36.919998,NA,NA
2021-11-30,34.99951731513952,35.709999,35.709999,NA,NA
2021-12-01,33.75478507669204,34.439999,34.439999,NA,NA
2021-12-02,34.62708068804241,35.330002,35.330002,NA,NA
2021-12-03,35.32295363651916,36.040001,36.040001,NA,NA
2021-12-06,35.7934026363007,36.52,36.52,NA,NA
2021-12-07,35.75419847131022,36.48,36.48,NA,NA
2021-12-08,36.01882658499591,36.75,36.75,NA,NA
2021-12-09,35.81300569890006,36.540001,36.540001,NA,NA
2021-12-10,36.08743387372923,36.82,36.82,NA,NA
2021-12-13,35.58758175020484,36.310001,36.310001,NA,NA
2021-12-14,35.26414640892933,35.98,35.98,NA,NA
2021-12-15,35.52877452261501,36.25,36.25,NA,NA
2021-12-16,36.27365169722573,37.009998,37.009998,NA,NA
2021-12-17,36.224647471091764,36.959999,36.959999,NA,NA
2021-12-20,35.66598811997754,36.389999,36.389999,NA,NA
2021-12-21,36.16584416391843,36.900002,36.900002,NA,NA
2021-12-22,36.08743387372923,36.82,36.82,NA,NA
2021-12-23,36.53828079101553,37.279999,37.279999,NA,NA
2021-12-27,36.57748593611013,37.32,37.32,NA,NA
2021-12-28,36.744105597527884,37.490002,37.490002,NA,NA
2021-12-29,36.35206198741492,37.09,37.09,NA,NA
2021-12-30,36.78330682220598,37.529999,37.529999,NA,NA
2021-12-31,36.16584416391843,36.900002,36.900002,NA,NA
2022-01-03,36.891118275929784,37.639999,37.639999,NA,NA
2022-01-04,37.21455459730942,37.970001,37.970001,NA,NA
2022-01-05,36.86171711239517,37.610001,37.610001,NA,NA
2022-01-06,37.66540151459572,38.43,38.43,NA,NA
2022-01-07,38.243662948205184,39.02,39.02,NA,NA
2022-01-10,38.25346300934867,39.029999,39.029999,NA,NA
2022-01-11,38.17505663957598,38.950001,38.950001,NA,NA
2022-01-12,38.508292041994984,39.290001,39.290001,NA,NA
2022-01-13,39.272772279205064,40.07,40.07,NA,NA
2022-01-14,40.203871197728766,41.02,41.02,NA,NA
2022-01-18,39.106156538203805,39.900002,39.900002,NA,NA
2022-01-19,38.870929588052725,39.66,39.66,NA,NA
2022-01-20,37.43017554454877,38.189999,38.189999,NA,NA
2022-01-21,36.94012348216787,37.689999,37.689999,NA,NA
2022-01-24,38.31227023693851,39.09,39.09,NA,NA
2022-01-25,38.38087752567183,39.16,39.16,NA,NA
2022-01-26,37.28316188604274,38.040001,38.040001,NA,NA
2022-01-27,37.4889827721386,38.25,38.25,NA,NA
2022-01-28,39.302173442739665,40.099998,40.099998,NA,NA
2022-01-31,39.80202948668055,40.610001,40.610001,NA,NA
2022-02-01,39.50799824925202,40.310001,40.310001,NA,NA
2022-02-02,39.86083279385389,40.669998,40.669998,NA,NA
2022-02-03,40.0862606629656,40.900002,40.900002,NA,NA
2022-02-04,39.88043585645325,40.689999,40.689999,NA,NA
2022-02-07,39.80202948668055,40.610001,40.610001,NA,NA
2022-02-08,40.00785037277641,40.82,40.82,NA,NA
2022-02-09,42.977563910596395,43.849998,43.849998,NA,NA
2022-02-10,43.12458148951891,44,44,NA,NA
2022-02-11,42.536520974870086,43.400002,43.400002,NA,NA
2022-02-14,41.82104104337748,42.669998,42.669998,NA,NA
2022-02-15,42.29149494367964,43.150002,43.150002,NA,NA
2022-02-16,42.15427644579649,43.009998,43.009998,NA,NA
2022-02-17,42.05626799352855,42.91,42.91,NA,NA
2022-02-18,41.53681378750893,42.380001,42.380001,NA,NA
2022-02-22,40.987954497538205,41.82,41.82,NA,NA
2022-02-23,40.15486697159481,40.970001,40.970001,NA,NA
2022-02-24,40.05685459891037,40.869999,40.869999,NA,NA
2022-02-25,40.93894929130011,41.77,41.77,NA,NA
2022-02-28,40.99775749899407,41.830002,41.830002,NA,NA
2022-03-01,40.67245277874669,41.259998,41.259998,0.24,NA
2022-03-02,42.47639542387265,43.09,43.09,NA,NA
2022-03-03,42.54539861903791,43.16,43.16,NA,NA
2022-03-04,42.0820904657398,42.689999,42.689999,NA,NA
2022-03-07,41.00761115526367,41.599998,41.599998,NA,NA
2022-03-08,41.244195510207284,41.84,41.84,NA,NA
2022-03-09,40.288007391443024,40.869999,40.869999,NA,NA
2022-03-10,39.223388637556,39.790001,39.790001,NA,NA
2022-03-11,38.76994005508708,39.330002,39.330002,NA,NA
2022-03-14,38.19819732362649,38.75,38.75,NA,NA
2022-03-15,39.213529066726814,39.779999,39.779999,NA,NA
2022-03-16,40.09085441949663,40.669998,40.669998,NA,NA
2022-03-17,39.706409032192965,40.279999,40.279999,NA,NA
2022-03-18,40.288007391443024,40.869999,40.869999,NA,NA
2022-03-21,40.26829120706444,40.849998,40.849998,NA,NA
2022-03-22,40.51473118979752,41.099998,41.099998,NA,NA
2022-03-23,39.98242378437387,40.560001,40.560001,NA,NA
2022-03-24,40.327438774440246,40.91,40.91,NA,NA
2022-03-25,40.633025338789196,41.220001,41.220001,NA,NA
2022-03-28,39.923277202758,40.5,40.5,NA,NA
2022-03-29,40.219004196277766,40.799999,40.799999,NA,NA
2022-03-30,39.56840264186245,40.139999,40.139999,NA,NA
2022-03-31,38.88823026103903,39.450001,39.450001,NA,NA
2022-04-01,38.79951186725511,39.360001,39.360001,NA,NA
2022-04-04,38.98680428261239,39.549999,39.549999,NA,NA
2022-04-05,38.109478929842574,38.66,38.66,NA,NA
2022-04-06,38.20805295141595,38.759998,38.759998,NA,NA
2022-04-07,37.872894574898964,38.419998,38.419998,NA,NA
2022-04-08,38.41506549419152,38.970001,38.970001,NA,NA
2022-04-11,38.16862551145845,38.720001,38.720001,NA,NA
2022-04-12,38.286915717410395,38.84,38.84,NA,NA
2022-04-13,38.55307188452204,39.110001,39.110001,NA,NA
2022-04-14,38.562927512311504,39.119999,39.119999,NA,NA
2022-04-18,38.4347816785701,38.990002,38.990002,NA,NA
2022-04-19,38.622074093927374,39.18,39.18,NA,NA
2022-04-20,38.996663853441575,39.560001,39.560001,NA,NA
2022-04-21,38.3756341111943,38.93,38.93,NA,NA
2022-04-22,37.66588597516312,38.209999,38.209999,NA,NA
2022-04-25,37.4490217476378,37.990002,37.990002,NA,NA
2022-04-26,36.078811500602185,36.599998,36.599998,NA,NA
2022-04-27,35.743653124085206,36.259998,36.259998,NA,NA
2022-04-28,36.01966886202604,36.540001,36.540001,NA,NA
2022-04-29,35.329635924613505,35.84,35.84,NA,NA
2022-05-02,36.04924067419408,36.57,36.57,NA,NA
2022-05-03,35.72394186850628,36.240002,36.240002,NA,NA
2022-05-04,36.51254882749219,37.040001,37.040001,NA,NA
2022-05-05,36.01966886202604,36.540001,36.540001,NA,NA
2022-05-06,34.10729163873759,34.599998,34.599998,NA,NA
2022-05-09,32.73708632050164,33.209999,33.209999,NA,NA
2022-05-10,31.958334989305186,32.419998,32.419998,NA,NA
2022-05-11,32.73708632050164,33.209999,33.209999,NA,NA
2022-05-12,32.97367067544525,33.450001,33.450001,NA,NA
2022-05-13,33.31868467975169,33.799999,33.799999,NA,NA
2022-05-16,33.210251087349135,33.689999,33.689999,NA,NA
2022-05-17,34.24530197210784,34.740002,34.740002,NA,NA
2022-05-18,33.01310205844246,33.490002,33.490002,NA,NA
2022-05-19,32.855380469493305,33.330002,33.330002,NA,NA
2022-05-20,32.98352630323471,33.459999,33.459999,NA,NA
2022-05-23,33.70313105281529,34.189999,34.189999,NA,NA
2022-05-24,32.02734212751017,32.490002,32.490002,NA,NA
2022-05-25,32.82580471428554,33.299999,33.299999,NA,NA
2022-05-26,34.048149000161445,34.540001,34.540001,NA,NA
2022-05-27,34.955046165099304,35.459999,35.459999,NA,NA
2022-05-31,35.00433317588599,35.509998,35.509998,NA,NA
2022-06-01,34.36359217805978,34.860001,34.860001,NA,NA
2022-06-02,33.92985485116978,34.419998,34.419998,NA,NA
2022-06-03,33.64398742847921,34.130001,34.130001,NA,NA
2022-06-06,33.59470041769252,34.080002,34.080002,NA,NA
2022-06-07,34.10729163873759,34.599998,34.599998,NA,NA
2022-06-08,33.57498423331395,34.060001,34.060001,NA,NA
2022-06-09,33.00324248761328,33.48,33.48,NA,NA
2022-06-10,31.928763177137153,32.389999,32.389999,NA,NA
2022-06-13,31.071153022985982,31.52,31.52,NA,NA
2022-06-14,31.57388960200152,32.029999,32.029999,NA,NA
2022-06-15,32.36250050402715,32.830002,32.830002,NA,NA
2022-06-16,31.820329584734594,32.279999,32.279999,NA,NA
2022-06-17,31.613320984998747,32.07,32.07,NA,NA
2022-06-21,32.0963443369155,32.560001,32.560001,NA,NA
2022-06-22,31.603464371449352,32.060001,32.060001,NA,NA
2022-06-23,31.613320984998747,32.07,32.07,NA,NA
2022-06-24,32.332924748819394,32.799999,32.799999,NA,NA
2022-06-27,32.569509103763004,33.040001,33.040001,NA,NA
2022-06-28,32.24420635503549,32.709999,32.709999,NA,NA
2022-06-29,32.17520315987023,32.639999,32.639999,NA,NA
2022-06-30,31.70203937878265,32.16,32.16,NA,NA
2022-07-01,32.59908091593104,33.07,33.07,NA,NA
2022-07-05,32.69765493750441,33.169998,33.169998,NA,NA
2022-07-06,32.68779930971495,33.16,33.16,NA,NA
2022-07-07,33.02295768623193,33.5,33.5,NA,NA
2022-07-08,32.76666207570939,33.240002,33.240002,NA,NA
2022-07-11,32.43150369919241,32.900002,32.900002,NA,NA
2022-07-12,32.746945891330824,33.220001,33.220001,NA,NA
2022-07-13,32.372356131816616,32.84,32.84,NA,NA
2022-07-14,32.0470533830891,32.509998,32.509998,NA,NA
2022-07-15,33.20039447379974,33.68,33.68,NA,NA
2022-07-18,32.756802504880206,33.23,33.23,NA,NA
2022-07-19,33.76227763443115,34.25,34.25,NA,NA
2022-07-20,34.24530197210784,34.740002,34.740002,NA,NA
2022-07-21,34.45231057184369,34.950001,34.950001,NA,NA
2022-07-22,34.65931917157954,35.16,35.16,NA,NA
2022-07-25,34.77760937753148,35.279999,35.279999,NA,NA
2022-07-26,33.61441167327145,34.099998,34.099998,NA,NA
2022-07-27,34.17629483390285,34.669998,34.669998,NA,NA
2022-07-28,34.38330737667843,34.880001,34.880001,NA,NA
2022-07-29,32.63851229892826,33.110001,33.110001,NA,NA
2022-08-01,32.96381110461606,33.439999,33.439999,NA,NA
2022-08-02,32.72723069271217,33.200001,33.200001,NA,NA
2022-08-03,33.09196088139719,33.57,33.57,NA,NA
2022-08-04,33.05252949839996,33.529999,33.529999,NA,NA
2022-08-05,32.855380469493305,33.330002,33.330002,NA,NA
2022-08-08,32.9933858740639,33.470001,33.470001,NA,NA
2022-08-09,33.25954204117554,33.740002,33.740002,NA,NA
2022-08-10,34.38330737667843,34.880001,34.880001,NA,NA
2022-08-11,35.91123428386356,36.43,36.43,NA,NA
2022-08-12,35.980237479028816,36.5,36.5,NA,NA
2022-08-15,35.86194727307687,36.380001,36.380001,NA,NA
2022-08-16,35.980237479028816,36.5,36.5,NA,NA
2022-08-17,35.6549347303013,36.169998,36.169998,NA,NA
2022-08-18,35.50707271218132,36.02,36.02,NA,NA
2022-08-19,35.17191433566433,35.68,35.68,NA,NA
2022-08-22,34.20587058911062,34.700001,34.700001,NA,NA
2022-08-23,34.01857324495369,34.509998,34.509998,NA,NA
2022-08-24,34.28472941206533,34.779999,34.779999,NA,NA
2022-08-25,34.481882384011726,34.98,34.98,NA,NA
2022-08-26,33.75242200664169,34.240002,34.240002,NA,NA
2022-08-29,33.831280829596416,34.32,34.32,NA,NA
2022-08-30,33.96037094815023,34.200001,34.200001,0.25,NA
2022-08-31,33.9405100896861,34.18,34.18,NA,NA
2022-09-01,33.80149202438341,34.040001,34.040001,NA,NA
2022-09-02,33.5035950353139,33.740002,33.740002,NA,NA
2022-09-06,32.738989221692826,32.970001,32.970001,NA,NA
2022-09-07,33.18583321580717,33.419998,33.419998,NA,NA
2022-09-08,33.28513452914799,33.52,33.52,NA,NA
2022-09-09,34.278127802690584,34.52,34.52,NA,NA
2022-09-12,34.55616492628924,34.799999,34.799999,NA,NA
2022-09-13,33.25534671692825,33.490002,33.490002,NA,NA
2022-09-14,33.28513452914799,33.52,33.52,NA,NA
2022-09-15,34.31784852662556,34.560001,34.560001,NA,NA
2022-09-16,33.43408153419283,33.669998,33.669998,NA,NA
2022-09-19,34.119249871917035,34.360001,34.360001,NA,NA
2022-09-20,34.0000916720852,34.240002,34.240002,NA,NA
2022-09-21,32.49074090330718,32.720001,32.720001,NA,NA
2022-09-22,31.885015006446185,32.110001,32.110001,NA,NA
2022-09-23,31.4878157110426,31.709999,31.709999,NA,NA
2022-09-26,30.90195166563901,31.120001,31.120001,NA,NA
2022-09-27,30.733142809136773,30.950001,30.950001,NA,NA
2022-09-28,31.219709513172646,31.440001,31.440001,NA,NA
2022-09-29,30.296224775784754,30.51,30.51,NA,NA
2022-09-30,30.465033632286996,30.68,30.68,NA,NA
2022-10-03,31.040969730941708,31.26,31.26,NA,NA
2022-10-04,32.004173206278026,32.23,32.23,NA,NA
2022-10-05,31.319008840526905,31.540001,31.540001,NA,NA
2022-10-06,30.951600336322873,31.17,31.17,NA,NA
2022-10-07,31.150199984024663,31.370001,31.370001,NA,NA
2022-10-10,30.92180954512332,31.139999,31.139999,NA,NA
2022-10-11,30.45510369955157,30.67,30.67,NA,NA
2022-10-12,30.2763649103139,30.49,30.49,NA,NA
2022-10-13,31.477887764293722,31.700001,31.700001,NA,NA
2022-10-14,31.328936787275786,31.549999,31.549999,NA,NA
2022-10-17,28.379747757847532,28.58,28.58,NA,NA
2022-10-18,28.99540458043722,29.200001,29.200001,NA,NA
2022-10-19,29.114562780269058,29.32,29.32,NA,NA
2022-10-20,28.806734865470855,29.01,29.01,NA,NA
2022-10-21,29.223792040358745,29.43,29.43,NA,NA
2022-10-24,29.41246175532511,29.620001,29.620001,NA,NA
2022-10-25,29.63091928251121,29.84,29.84,NA,NA
2022-10-26,28.767014141535878,28.969999,28.969999,NA,NA
2022-10-27,27.97262051569507,28.17,28.17,NA,NA
2022-10-28,28.63792600896861,28.84,28.84,NA,NA
2022-10-31,28.66771680016816,28.870001,28.870001,NA,NA
2022-11-01,30.31608563424888,30.530001,30.530001,NA,NA
2022-11-02,29.839446876961883,30.049999,30.049999,NA,NA
2022-11-03,29.74014953559417,29.950001,29.950001,NA,NA
2022-11-04,29.63091928251121,29.84,29.84,NA,NA
2022-11-07,28.935822998038116,29.139999,29.139999,NA,NA
2022-11-08,29.13442264573991,29.34,29.34,NA,NA
2022-11-09,28.240729692544843,28.440001,28.440001,NA,NA
2022-11-10,29.233722966087445,29.440001,29.440001,NA,NA
2022-11-11,30.30615470852018,30.52,30.52,NA,NA
2022-11-14,30.196925448430495,30.41,30.41,NA,NA
2022-11-15,30.53454316143498,30.75,30.75,NA,NA
2022-11-16,30.2763649103139,30.49,30.49,NA,NA
2022-11-17,30.415382975616595,30.629999,30.629999,NA,NA
2022-11-18,30.713281950672645,30.93,30.93,NA,NA
2022-11-21,30.296224775784754,30.51,30.51,NA,NA
2022-11-22,30.683492152466368,30.9,30.9,NA,NA
2022-11-23,30.862230941704034,31.08,31.08,NA,NA
2022-11-25,31.070760522141256,31.290001,31.290001,NA,NA
2022-11-28,30.782791479820627,31,31,NA,NA
2022-11-29,31.49774564377803,31.719999,31.719999,NA,NA
2022-11-30,32.22263271945067,32.450001,32.450001,NA,NA
2022-12-01,31.875082094730942,32.099998,32.099998,NA,NA
2022-12-02,32.32193006081839,32.549999,32.549999,NA,NA
2022-12-05,31.78571270011211,32.009998,32.009998,NA,NA
2022-12-06,30.782791479820627,31,31,NA,NA
2022-12-07,30.48489449075112,30.700001,30.700001,NA,NA
2022-12-08,30.782791479820627,31,31,NA,NA
2022-12-09,31.090618401625562,31.309999,31.309999,NA,NA
2022-12-12,31.30907890779148,31.530001,31.530001,NA,NA
2022-12-13,31.80557355857623,32.029999,32.029999,NA,NA
2022-12-14,31.577185105661435,31.799999,31.799999,NA,NA
2022-12-15,30.48489449075112,30.700001,30.700001,NA,NA
2022-12-16,30.52461322869955,30.74,30.74,NA,NA
2022-12-19,29.2833716367713,29.49,29.49,NA,NA
2022-12-20,29.74014953559417,29.950001,29.950001,NA,NA
2022-12-21,30.117485986547084,30.33,30.33,NA,NA
2022-12-22,30.28629484304933,30.5,30.5,NA,NA
2022-12-23,30.544473094170407,30.76,30.76,NA,NA
2022-12-27,30.405455028867713,30.620001,30.620001,NA,NA
2022-12-28,29.899028459360988,30.110001,30.110001,NA,NA
2022-12-29,30.345873446468612,30.559999,30.559999,NA,NA
2022-12-30,30.15720671048206,30.370001,30.370001,NA,NA
2023-01-03,30.05790639013453,30.27,30.27,NA,NA
2023-01-04,31.06083058940583,31.280001,31.280001,NA,NA
2023-01-05,30.633842488789238,30.85,30.85,NA,NA
2023-01-06,31.52753643497758,31.75,31.75,NA,NA
2023-01-09,31.05089966367713,31.27,31.27,NA,NA
2023-01-10,31.66655450028027,31.889999,31.889999,NA,NA
2023-01-11,31.84529428251121,32.07,32.07,NA,NA
2023-01-12,31.984312347813905,32.209999,32.209999,NA,NA
2023-01-13,32.103474519618835,32.330002,32.330002,NA,NA
2023-01-17,31.54739630044843,31.77,31.77,NA,NA
2023-01-18,31.259428251121076,31.48,31.48,NA,NA
2023-01-19,31.090618401625562,31.309999,31.309999,NA,NA
2023-01-20,31.33886672001121,31.559999,31.559999,NA,NA
2023-01-23,32.441088260650226,32.669998,32.669998,NA,NA
2023-01-24,32.441088260650226,32.669998,32.669998,NA,NA
2023-01-25,33.25534671692825,33.490002,33.490002,NA,NA
2023-01-26,33.72205057651346,33.959999,33.959999,NA,NA
2023-01-27,33.61282032343049,33.849998,33.849998,NA,NA
2023-01-30,33.424153587443946,33.66,33.66,NA,NA
2023-01-31,33.702190711042604,33.939999,33.939999,NA,NA
2023-02-01,34.06960020823991,34.310001,34.310001,NA,NA
2023-02-02,34.734904708520176,34.98,34.98,NA,NA
2023-02-03,34.357565278587444,34.599998,34.599998,NA,NA
2023-02-06,33.73198249523543,33.970001,33.970001,NA,NA
2023-02-07,33.81141997113229,34.049999,34.049999,NA,NA
2023-02-08,35.29098193469731,35.540001,35.540001,NA,NA
2023-02-09,35.489581582399104,35.740002,35.740002,NA,NA
2023-02-10,35.55909011855381,35.810001,35.810001,NA,NA
2023-02-13,35.43992893974215,35.689999,35.689999,NA,NA
2023-02-14,35.50943747589687,35.759998,35.759998,NA,NA
2023-02-15,36.85990932090807,37.119999,37.119999,NA,NA
2023-02-16,36.47264293721973,36.73,36.73,NA,NA
2023-02-17,36.77053992628924,37.029999,37.029999,NA,NA
2023-02-21,35.91656471804933,36.169998,36.169998,NA,NA
2023-02-22,36.25418243105381,36.509998,36.509998,NA,NA
2023-02-23,36.08537556053812,36.34,36.34,NA,NA
2023-02-24,35.63852759445068,35.889999,35.889999,NA,NA
2023-02-27,35.43,35.68,35.68,NA,NA
2023-02-28,35.02,35.02,35.02,0.25,NA
2023-03-01,34.799999,34.799999,34.799999,NA,NA
2023-03-02,35.110001,35.110001,35.110001,NA,NA
2023-03-03,34.919998,34.919998,34.919998,NA,NA
2023-03-06,34.799999,34.799999,34.799999,NA,NA
2023-03-07,34.689999,34.689999,34.689999,NA,NA
2023-03-08,34.5,34.5,34.5,NA,NA
2023-03-09,33.27,33.27,33.27,NA,NA
2023-03-10,33.139999,33.139999,33.139999,NA,NA
2023-03-13,32.279999,32.279999,32.279999,NA,NA
2023-03-14,32.900002,32.900002,32.900002,NA,NA
2023-03-15,32.52,32.52,32.52,NA,NA
2023-03-16,32.939999,32.939999,32.939999,NA,NA
2023-03-17,32.73,32.73,32.73,NA,NA
2023-03-20,33.43,33.43,33.43,NA,NA
2023-03-21,33.73,33.73,33.73,NA,NA
2023-03-22,33.32,33.32,33.32,NA,NA
2023-03-23,33.669998,33.669998,33.669998,NA,NA
2023-03-24,33.060001,33.060001,33.060001,NA,NA
2023-03-27,33.630001,33.630001,33.630001,NA,NA
2023-03-28,32.759998,32.759998,32.759998,NA,NA
2023-03-29,33.169998,33.169998,33.169998,NA,NA
2023-03-30,33.669998,33.669998,33.669998,NA,NA
2023-03-31,34.049999,34.049999,34.049999,NA,NA
2023-04-03,34.18,34.18,34.18,NA,NA
2023-04-04,33.869999,33.869999,33.869999,NA,NA
2023-04-05,33.740002,33.740002,33.740002,NA,NA
2023-04-06,33.450001,33.450001,33.450001,NA,NA
2023-04-10,33.93,33.93,33.93,NA,NA
2023-04-11,34.189999,34.189999,34.189999,NA,NA
2023-04-12,33.73,33.73,33.73,NA,NA
2023-04-13,33.939999,33.939999,33.939999,NA,NA
2023-04-14,33.41,33.41,33.41,NA,NA
2023-04-17,33.990002,33.990002,33.990002,NA,NA
2023-04-18,34,34,34,NA,NA
2023-04-19,33.84,33.84,33.84,NA,NA
2023-04-20,33.700001,33.700001,33.700001,NA,NA
2023-04-21,33.619999,33.619999,33.619999,NA,NA
2023-04-24,32.639999,32.639999,32.639999,NA,NA
2023-04-25,32.439999,32.439999,32.439999,NA,NA
2023-04-26,32.470001,32.470001,32.470001,NA,NA
2023-04-27,32.860001,32.860001,32.860001,NA,NA
2023-04-28,33.259998,33.259998,33.259998,NA,NA
2023-05-01,33.299999,33.299999,33.299999,NA,NA
2023-05-02,33.060001,33.060001,33.060001,NA,NA
2023-05-03,32.700001,32.700001,32.700001,NA,NA
2023-05-04,31.16,31.16,31.16,NA,NA
2023-05-05,31.969999,31.969999,31.969999,NA,NA
2023-05-08,32.169998,32.169998,32.169998,NA,NA
2023-05-09,31.68,31.68,31.68,NA,NA
2023-05-10,31.190001,31.190001,31.190001,NA,NA
2023-05-11,30.67,30.67,30.67,NA,NA
2023-05-12,30.719999,30.719999,30.719999,NA,NA
2023-05-15,31.01,31.01,31.01,NA,NA
2023-05-16,30.530001,30.530001,30.530001,NA,NA
2023-05-17,31.379999,31.379999,31.379999,NA,NA
2023-05-18,31.09,31.09,31.09,NA,NA
2023-05-19,31.34,31.34,31.34,NA,NA
2023-05-22,31.309999,31.309999,31.309999,NA,NA
2023-05-23,31.35,31.35,31.35,NA,NA
2023-05-24,31.030001,31.030001,31.030001,NA,NA
2023-05-25,31.07,31.07,31.07,NA,NA
2023-05-26,31.4,31.4,31.4,NA,NA
2023-05-30,31.48,31.48,31.48,NA,NA
2023-05-31,31.200001,31.200001,31.200001,NA,NA
2023-06-01,31.309999,31.309999,31.309999,NA,NA
2023-06-02,31.870001,31.870001,31.870001,NA,NA
2023-06-05,32.189999,32.189999,32.189999,NA,NA
2023-06-06,32.540001,32.540001,32.540001,NA,NA
2023-06-07,33.349998,33.349998,33.349998,NA,NA
2023-06-08,33.84,33.84,33.84,NA,NA
2023-06-09,33.540001,33.540001,33.540001,NA,NA
